<?xml version="1.0" encoding="UTF-8" standalone="no"?>
<svg
   xmlns:osb="http://www.openswatchbook.org/uri/2009/osb"
   xmlns:dc="http://purl.org/dc/elements/1.1/"
   xmlns:cc="http://creativecommons.org/ns#"
   xmlns:rdf="http://www.w3.org/1999/02/22-rdf-syntax-ns#"
   xmlns:svg="http://www.w3.org/2000/svg"
   xmlns="http://www.w3.org/2000/svg"
   xmlns:xlink="http://www.w3.org/1999/xlink"
   width="256.00052mm"
   height="109.66142mm"
   viewBox="0 0 256.00052 109.66142"
   version="1.1"
   id="svg8">
  <defs
     id="defs2">
    <linearGradient
       id="linearGradient13342"
       osb:paint="solid">
      <stop
         style="stop-color:#000000;stop-opacity:1;"
         offset="0"
         id="stop13340" />
    </linearGradient>
    <marker
       orient="auto"
       refY="0"
       refX="0"
       id="Club"
       style="overflow:visible">
      <path
         id="path6729"
         d="m -1.5971367,-7.0977635 c -1.8892507,0 -3.426382,1.5371314 -3.426382,3.4263822 0,0.6566798 0.2383531,1.2269257 0.5594092,1.7481542 -0.038751,0.032111 -0.079672,0.058463 -0.1165436,0.093235 -0.6224234,-0.8549928 -1.5893983,-1.4451409 -2.7271199,-1.4451409 -1.8892515,-1e-7 -3.426382,1.5371314 -3.426382,3.42638214 0,1.88925076 1.5371305,3.42638216 3.426382,3.42638216 0.9934462,0 1.868619,-0.4420611 2.4940326,-1.1188187 -0.124687,0.3548915 -0.2097783,0.7214874 -0.2097783,1.1188187 0,1.8892506 1.5371313,3.4263822 3.426382,3.4263822 1.88925064,0 3.4263821,-1.5371316 3.4263821,-3.4263822 0,-0.7933959 -0.3155586,-1.4938285 -0.7691878,-2.0744763 C 2.4152718,1.7663868 3.7718375,2.2973711 4.7661444,3.8340272 4.0279463,3.0958289 3.5540908,1.7534117 3.5540908,-0.05852936 l -0.6293354,-0.04661745 0.5827179,-0.0233087 c 0,-1.81194107 0.4505466,-3.15435827 1.188745,-3.89255657 -0.9590906,1.4822308 -2.2571634,2.0263625 -3.5662345,2.3075635 0.4041964,-0.5619092 0.6992616,-1.213407 0.6992616,-1.9579327 0,-1.8892506 -1.53713146,-3.4263822 -3.4263821,-3.4263822 z"
         style="fill:#000000;fill-opacity:1;fill-rule:evenodd;stroke:#000000;stroke-width:0.7458791pt;stroke-opacity:1"
         transform="scale(0.6)" />
    </marker>
    <marker
       orient="auto"
       refY="0"
       refX="0"
       id="marker13130"
       style="overflow:visible">
      <path
         id="path13128"
         d="M 0,0 5,-5 -12.5,0 5,5 Z"
         style="fill:#000000;fill-opacity:1;fill-rule:evenodd;stroke:#000000;stroke-width:1.00000003pt;stroke-opacity:1"
         transform="matrix(0.8,0,0,0.8,10,0)" />
    </marker>
    <marker
       orient="auto"
       refY="0"
       refX="0"
       id="marker13054"
       style="overflow:visible">
      <path
         id="path13052"
         d="M 0,0 5,-5 -12.5,0 5,5 Z"
         style="fill:#000000;fill-opacity:1;fill-rule:evenodd;stroke:#000000;stroke-width:1.00000003pt;stroke-opacity:1"
         transform="matrix(-0.8,0,0,-0.8,-10,0)" />
    </marker>
    <marker
       orient="auto"
       refY="0"
       refX="0"
       id="Arrow2Lend"
       style="overflow:visible">
      <path
         id="path6521"
         style="fill:#000000;fill-opacity:1;fill-rule:evenodd;stroke:#000000;stroke-width:0.625;stroke-linejoin:round;stroke-opacity:1"
         d="M 8.7185878,4.0337352 -2.2072895,0.01601326 8.7185884,-4.0017078 c -1.7454984,2.3720609 -1.7354408,5.6174519 -6e-7,8.035443 z"
         transform="matrix(-1.1,0,0,-1.1,-1.1,0)" />
    </marker>
    <marker
       orient="auto"
       refY="0"
       refX="0"
       id="Arrow1Lstart"
       style="overflow:visible">
      <path
         id="path6500"
         d="M 0,0 5,-5 -12.5,0 5,5 Z"
         style="fill:#000000;fill-opacity:1;fill-rule:evenodd;stroke:#000000;stroke-width:1.00000003pt;stroke-opacity:1"
         transform="matrix(0.8,0,0,0.8,10,0)" />
    </marker>
    <marker
       orient="auto"
       refY="0"
       refX="0"
       id="marker12648"
       style="overflow:visible">
      <path
         id="path12646"
         d="M 0,0 5,-5 -12.5,0 5,5 Z"
         style="fill:#ffffff;fill-opacity:1;fill-rule:evenodd;stroke:#000000;stroke-width:1.00000003pt;stroke-opacity:1"
         transform="matrix(-0.8,0,0,-0.8,-10,0)" />
    </marker>
    <marker
       orient="auto"
       refY="0"
       refX="0"
       id="marker12614"
       style="overflow:visible">
      <path
         id="path12612"
         d="M 0,0 5,-5 -12.5,0 5,5 Z"
         style="fill:#ffffff;fill-opacity:1;fill-rule:evenodd;stroke:#000000;stroke-width:1.00000003pt;stroke-opacity:1"
         transform="matrix(-0.8,0,0,-0.8,-10,0)" />
    </marker>
    <marker
       style="overflow:visible"
       id="marker12313"
       refX="0"
       refY="0"
       orient="auto">
      <path
         transform="matrix(-0.8,0,0,-0.8,-10,0)"
         style="fill:#ffffff;fill-opacity:1;fill-rule:evenodd;stroke:#000000;stroke-width:1.00000003pt;stroke-opacity:1"
         d="M 0,0 5,-5 -12.5,0 5,5 Z"
         id="path12311" />
    </marker>
    <marker
       style="overflow:visible"
       id="marker9514"
       refX="0"
       refY="0"
       orient="auto">
      <path
         transform="matrix(-0.8,0,0,-0.8,-10,0)"
         style="fill:#ffffff;fill-opacity:1;fill-rule:evenodd;stroke:#000000;stroke-width:1.00000003pt;stroke-opacity:1"
         d="M 0,0 5,-5 -12.5,0 5,5 Z"
         id="path9512" />
    </marker>
    <marker
       orient="auto"
       refY="0"
       refX="0"
       id="marker8178"
       style="overflow:visible">
      <path
         id="path8176"
         d="M 0,0 5,-5 -12.5,0 5,5 Z"
         style="fill:#ffffff;fill-opacity:1;fill-rule:evenodd;stroke:#000000;stroke-width:1.00000003pt;stroke-opacity:1"
         transform="matrix(-0.8,0,0,-0.8,-10,0)" />
    </marker>
    <marker
       orient="auto"
       refY="0"
       refX="0"
       id="Arrow1Lend"
       style="overflow:visible">
      <path
         id="path6503"
         d="M 0,0 5,-5 -12.5,0 5,5 Z"
         style="fill:#ffffff;fill-opacity:0;fill-rule:evenodd;stroke:#280000;stroke-width:1.00000003pt;stroke-opacity:0"
         transform="matrix(-0.8,0,0,-0.8,-10,0)" />
    </marker>
    <linearGradient
       id="linearGradient5028"
       osb:paint="solid">
      <stop
         style="stop-color:#000000;stop-opacity:1;"
         offset="0"
         id="stop5026" />
    </linearGradient>
    <symbol
       id="Connector">
      <title
         id="title4537">Connector</title>
      <desc
         id="desc4539">Exit to or entry from another part of chart.</desc>
      <circle
         cx="19.84375"
         cy="19.84375"
         r="5.2916665"
         style="stroke-width:0.52916664"
         id="circle4541" />
    </symbol>
    <symbol
       id="AuxillaryOp">
      <title
         id="title4474">Auxiliary Operation</title>
      <desc
         id="desc4476">Offline operation.</desc>
      <rect
         x="9.260417"
         y="9.260417"
         width="21.166666"
         height="21.166666"
         style="stroke-width:0.52916664"
         id="rect4478" />
    </symbol>
    <symbol
       id="Decision">
      <title
         id="title4451">Decision</title>
      <desc
         id="desc4453">A decision or switching type operation.</desc>
      <path
         d="m 3.96875,19.84375 15.875,-10.5833333 15.875,10.5833333 -15.875,10.583333 z"
         style="stroke-width:0.52916664"
         id="path4455" />
    </symbol>
    <symbol
       id="Merge">
      <title
         id="title4444">Merge</title>
      <desc
         id="desc4446">Combine two or more sets of items into one set. (ISO)</desc>
      <path
         d="M 9.2604167,9.2604167 H 30.427083 L 19.84375,27.78125 Z"
         style="stroke-width:0.52916664"
         id="path4448" />
    </symbol>
  </defs>
  <metadata
     id="metadata5">
    <rdf:RDF>
      <cc:Work
         rdf:about="">
        <dc:format>image/svg+xml</dc:format>
        <dc:type
           rdf:resource="http://purl.org/dc/dcmitype/StillImage" />
        <dc:title></dc:title>
      </cc:Work>
    </rdf:RDF>
  </metadata>
  <g
     id="layer1"
     transform="translate(-9.0404656,-55.507183)">
    <use
       id="use4989"
       transform="matrix(2.8369233,0,0,1.846189,154.87423,46.528364)"
       style="fill:#f2f2f2;stroke:#000000;stroke-opacity:1"
       xlink:href="#AuxillaryOp"
       x="0"
       y="0"
       width="100%"
       height="100%" />
    <use
       id="use4922"
       transform="matrix(4.0064065,0,0,4.0064065,-27.828151,31.050969)"
       style="fill:#aa0000;stroke:#000000"
       xlink:href="#Connector"
       x="0"
       y="0"
       width="100%"
       height="100%" />
    <text
       xml:space="preserve"
       style="font-style:normal;font-weight:normal;font-size:7.76111126px;line-height:1;font-family:sans-serif;letter-spacing:0px;word-spacing:0px;fill:#ffffff;fill-opacity:1;stroke:none;stroke-width:0.26458332"
       x="32.480225"
       y="112.79247"
       id="text4940"><tspan
         id="tspan4938"
         x="32.480225"
         y="112.79247"
         style="font-weight:bold;fill:#ffffff;stroke-width:0.26458332">Attacker</tspan></text>
    <use
       id="use4922-3"
       transform="matrix(4.0064066,0,0,4.0064066,130.68782,30.172733)"
       style="fill:#800080;stroke:#000000"
       xlink:href="#Connector"
       x="0"
       y="0"
       width="100%"
       height="100%" />
    <text
       xml:space="preserve"
       style="font-style:normal;font-weight:normal;font-size:7.76111126px;line-height:1;font-family:sans-serif;letter-spacing:0px;word-spacing:0px;fill:#000000;fill-opacity:1;stroke:none;stroke-width:0.26458332"
       x="198.19836"
       y="112.3659"
       id="text4940-6"><tspan
         id="tspan4938-7"
         x="198.19836"
         y="112.3659"
         style="font-weight:bold;fill:#ffffff;stroke-width:0.26458332">Relay</tspan></text>
    <text
       xml:space="preserve"
       style="font-style:normal;font-weight:normal;font-size:7.76111126px;line-height:1;font-family:sans-serif;letter-spacing:0px;word-spacing:0px;fill:#000000;fill-opacity:1;stroke:none;stroke-width:0.26458332"
       x="195.27356"
       y="72.436676"
       id="text6492"><tspan
         id="tspan6490"
         x="195.27356"
         y="72.436676"
         style="stroke-width:0.26458332">evil.com</tspan></text>
    <text
       xml:space="preserve"
       style="font-style:normal;font-weight:normal;font-size:7.76111126px;line-height:1;font-family:sans-serif;letter-spacing:0px;word-spacing:0px;fill:#000000;fill-opacity:1;stroke:none;stroke-width:0.26458332"
       x="189.31604"
       y="61.745888"
       id="text6496"><tspan
         id="tspan6494"
         x="189.31604"
         y="61.745888"
         style="stroke-width:0.26458332">DNS cache</tspan></text>
    <text
       xml:space="preserve"
       style="font-style:normal;font-weight:normal;font-size:7.76111126px;line-height:1;font-family:sans-serif;letter-spacing:0px;word-spacing:0px;fill:#000000;fill-opacity:1;stroke:none;stroke-width:0.26458332"
       x="88.572731"
       y="68.185562"
       id="text8654"><tspan
         id="tspan8652"
         x="88.572731"
         y="68.185562"
         style="stroke-width:0.26458332">cache evil.com</tspan></text>
    <path
       style="fill:#ffffff;stroke:#000000;stroke-width:0.495;stroke-linecap:butt;stroke-linejoin:miter;stroke-miterlimit:4;stroke-dasharray:none;stroke-dashoffset:0;stroke-opacity:1;marker-end:url(#marker8178)"
       d="M 51.37028,87.594418 V 70.20505 h 134.40985"
       id="path9472" />
    <path
       style="fill:#ffffff;stroke:#000000;stroke-width:0.49582317;stroke-linecap:butt;stroke-linejoin:miter;stroke-miterlimit:4;stroke-dasharray:none;stroke-opacity:1;marker-end:url(#marker9514)"
       d="M 74.81384,111.01215 H 186.13429"
       id="path9504" />
    <use
       id="use9987"
       transform="matrix(4.7311785,0,0,1.0967741,32.428372,74.044029)"
       style="fill:#f9f9f9;stroke:#000000"
       xlink:href="#AuxillaryOp"
       x="0"
       y="0"
       width="100%"
       height="100%" />
    <use
       id="use10011"
       transform="matrix(2.5764769,0,0,0.46775682,94.463867,90.435068)"
       style="fill:#e5ffd5;stroke:#000000"
       xlink:href="#AuxillaryOp"
       x="0"
       y="0"
       width="100%"
       height="100%" />
    <text
       xml:space="preserve"
       style="font-style:normal;font-weight:normal;font-size:7.76111126px;line-height:1;font-family:sans-serif;letter-spacing:0px;word-spacing:0px;fill:#000000;fill-opacity:1;stroke:none;stroke-width:0.26458332"
       x="119.41502"
       y="102.17695"
       id="text10025"><tspan
         id="tspan10023"
         x="119.41502"
         y="102.17695"
         style="stroke-width:0.26458332">example.com</tspan></text>
    <use
       id="use10011-1"
       transform="matrix(1.6574663,0,0,0.47324521,64.501493,90.173088)"
       style="fill:#ffeeaa;stroke:#000000"
       xlink:href="#AuxillaryOp"
       x="0"
       y="0"
       width="100%"
       height="100%" />
    <text
       xml:space="preserve"
       style="font-style:normal;font-weight:normal;font-size:7.76111126px;line-height:1;font-family:sans-serif;letter-spacing:0px;word-spacing:0px;fill:#000000;fill-opacity:1;stroke:none;stroke-width:0.26458332"
       x="81.275879"
       y="102.05797"
       id="text10025-2"><tspan
         id="tspan10023-7"
         x="81.275879"
         y="102.05797"
         style="stroke-width:0.26458332">evil.com</tspan></text>
    <text
       xml:space="preserve"
       style="font-style:normal;font-weight:normal;font-size:7.76111126px;line-height:1;font-family:sans-serif;letter-spacing:0px;word-spacing:0px;fill:#000000;fill-opacity:1;stroke:none;stroke-width:0.26458332"
       x="81.241333"
       y="92.910767"
       id="text10050"><tspan
         id="tspan10048"
         x="81.241333"
         y="92.910767"
         style="font-size:7.05555534px;stroke-width:0.26458332">RESOLVE</tspan></text>
    <text
       xml:space="preserve"
       style="font-style:normal;font-weight:normal;font-size:7.76111126px;line-height:1;font-family:sans-serif;letter-spacing:0px;word-spacing:0px;fill:#000000;fill-opacity:1;stroke:none;stroke-width:0.26458332"
       x="128.71046"
       y="93.004311"
       id="text10050-0"><tspan
         id="tspan10048-9"
         x="128.71046"
         y="93.004311"
         style="font-size:7.05555534px;stroke-width:0.26458332">RESOLVE</tspan></text>
    <text
       xml:space="preserve"
       style="font-style:normal;font-weight:normal;font-size:7.76111126px;line-height:1;font-family:sans-serif;letter-spacing:0px;word-spacing:0px;fill:#000000;fill-opacity:1;stroke:none;stroke-width:0.26458332"
       x="83.980423"
       y="118.73986"
       id="text11776"><tspan
         id="tspan11774"
         x="83.980423"
         y="118.73986"
         style="stroke-width:0.26458332">send together in-order</tspan></text>
    <text
       xml:space="preserve"
       style="font-style:normal;font-weight:normal;font-size:7.76111126px;line-height:1;font-family:sans-serif;letter-spacing:0px;word-spacing:0px;fill:#000000;fill-opacity:1;stroke:none;stroke-width:0.26458332"
       x="184.69023"
       y="82.003036"
       id="text11887"><tspan
         id="tspan11885"
         x="184.69023"
         y="82.003036"
         style="stroke-width:0.26458332">example.com</tspan></text>
    <path
       style="fill:none;stroke:#000000;stroke-width:0.5;stroke-linecap:butt;stroke-linejoin:miter;stroke-miterlimit:4;stroke-dasharray:none;stroke-opacity:1;marker-end:url(#marker12313)"
       d="m 209.18437,133.50174 v 13.79613 H 50.623361 v -13.04018"
       id="path12303" />
    <use
       id="use10011-6"
       transform="matrix(3.1560227,0,0,0.46525547,33.899601,131.21065)"
       style="fill:#e5ffd5;stroke:#000000"
       xlink:href="#AuxillaryOp"
       x="0"
       y="0"
       width="100%"
       height="100%" />
    <text
       xml:space="preserve"
       style="font-style:normal;font-weight:normal;font-size:7.76111126px;line-height:1;font-family:sans-serif;letter-spacing:0px;word-spacing:0px;fill:#000000;fill-opacity:1;stroke:none;stroke-width:0.26458332"
       x="65.949936"
       y="142.52977"
       id="text10025-26"><tspan
         id="tspan10023-1"
         x="65.949936"
         y="142.52977"
         style="stroke-width:0.26458332">example.com:ip</tspan></text>
    <use
       id="use10011-1-8"
       transform="matrix(2.1350491,0,0,0.47031278,116.28673,131.15835)"
       style="fill:#ffeeaa;stroke:#000000"
       xlink:href="#AuxillaryOp"
       x="0"
       y="0"
       width="100%"
       height="100%" />
    <text
       xml:space="preserve"
       style="font-style:normal;font-weight:normal;font-size:7.76111126px;line-height:1;font-family:sans-serif;letter-spacing:0px;word-spacing:0px;fill:#000000;fill-opacity:1;stroke:none;stroke-width:0.26458332"
       x="137.36818"
       y="142.57782"
       id="text10025-2-7"><tspan
         id="tspan10023-7-9"
         x="137.36818"
         y="142.57782"
         style="stroke-width:0.26458332">evil.com:ip</tspan></text>
    <text
       xml:space="preserve"
       style="font-style:normal;font-weight:normal;font-size:6.3499999px;line-height:1;font-family:sans-serif;letter-spacing:0px;word-spacing:0px;fill:#ffffff;fill-opacity:1;stroke:none;stroke-width:0.26458332"
       x="41.692909"
       y="149.71309"
       id="text12454"><tspan
         x="41.692909"
         y="149.71309"
         style="font-size:6.3499999px;fill:#ffffff;stroke-width:0.26458332"
         id="tspan12456">1</tspan></text>
    <flowRoot
       xml:space="preserve"
       id="flowRoot12481"
       style="font-style:normal;font-weight:normal;font-size:29.33333397px;line-height:1;font-family:sans-serif;letter-spacing:0px;word-spacing:0px;fill:#000000;fill-opacity:1;stroke:none"
       transform="matrix(0.26458333,0,0,0.26458333,0,47)"><flowRegion
         id="flowRegion12483"><rect
           id="rect12485"
           width="39.5"
           height="56.5"
           x="133.75"
           y="487.3819" /></flowRegion><flowPara
         id="flowPara12487" /></flowRoot>    <text
       xml:space="preserve"
       style="font-style:normal;font-weight:normal;font-size:7.76111126px;line-height:1;font-family:sans-serif;letter-spacing:0px;word-spacing:0px;fill:#000000;fill-opacity:1;stroke:none;stroke-width:0.26458332"
       x="140.2018"
       y="134.00668"
       id="text12526"><tspan
         id="tspan12524"
         x="140.2018"
         y="134.00668"
         style="font-size:7.05555534px;stroke-width:0.26458332">RESOLVED</tspan></text>
    <text
       xml:space="preserve"
       style="font-style:normal;font-weight:normal;font-size:7.76111126px;line-height:1;font-family:sans-serif;letter-spacing:0px;word-spacing:0px;fill:#000000;fill-opacity:1;stroke:none;stroke-width:0.26458332"
       x="80.054794"
       y="134.02255"
       id="text12526-8"><tspan
         id="tspan12524-9"
         x="80.054794"
         y="134.02255"
         style="font-size:7.05555534px;stroke-width:0.26458332">RESOLVED</tspan></text>
  </g>
  <text
     id="text99"
     y="27.37974"
     x="96.680969"
     style="font-style:normal;font-weight:normal;font-size:7.76111078px;line-height:1;font-family:sans-serif;letter-spacing:0px;word-spacing:0px;fill:#000000;fill-opacity:1;stroke:none;stroke-width:0.26458332"
     xml:space="preserve"><tspan
       style="stroke-width:0.26458332"
       y="27.37974"
       x="96.680969"
       id="tspan97">TLS record</tspan></text>
</svg>
